%YAML 1.1
%TAG !u! tag:unity3d.com,2011:
--- !u!1045 &1
EditorBuildSettings:
  m_ObjectHideFlags: 0
  serializedVersion: 2
  m_Scenes:
  - enabled: 1
    path: Assets/Scenes/Level 1.unity
    guid: 319154607b650ba4e9b924da7136c404
  - enabled: 1
    path: Assets/Scenes/Level 2.unity
    guid: d6e6aa70f8dfb054d8ce318aebb211a8
  - enabled: 1
    path: Assets/Scenes/Level 3.unity
    guid: cd2f9f7e915c1854892f0d627f78395e
  - enabled: 1
    path: Assets/Scenes/Level 4.unity
    guid: 1fa6ec89b8c683544a989c207ff4e910
  - enabled: 1
    path: Assets/Scenes/Level 5.unity
    guid: 9d5f4184f07bee54e88ceb4f52b96f67
  m_configObjects: {}
